{
  "project_info": {
    "project_number": "992671980052",
    "firebase_url": "https://famicoco2.firebaseio.com",
    "project_id": "famicoco2",
    "storage_bucket": "famicoco2.appspot.com"
  },
  "client": [
    {
      "client_info": {
        "mobilesdk_app_id": "1:992671980052:android:60c6b01a0a99b93e",
        "android_client_info": {
          "package_name": "com.example.mito.famicoco2"
        }
      },
      "oauth_client": [
        {
          "client_id": "992671980052-sjl5k9jlht23dqoq9ecaq1v1hea9rtbm.apps.googleusercontent.com",
          "client_type": 3
        }
      ],
      "api_key": [
        {
          "current_key": "AIzaSyD99FqlmpKAsOo3nv6xsLHMwL9sbFhUv2I"
        }
      ],
      "services": {
        "analytics_service": {
          "status": 1
        },
        "appinvite_service": {
          "status": 1,
          "other_platform_oauth_client": []
        },
        "ads_service": {
          "status": 2
        }
      }
    }
  ],
  "configuration_version": "1"
}